<?xml version="1.0" encoding="UTF-8"?>
<CustomTab xmlns="http://soap.sforce.com/2006/04/metadata">
    <icon>SharedDocuments/Standard_Berry_Logo.jpg</icon>
    <label>Berry360</label>
    <mobileReady>false</mobileReady>
    <motif>Custom251: TV Widescreen</motif>
    <page>SingleSignOnDashboard</page>
</CustomTab>
