<?xml version="1.0" encoding="UTF-8"?>
<CustomTab xmlns="http://soap.sforce.com/2006/04/metadata">
    <description>Tab to access page to enter parameters used to select records for Galley Reports</description>
    <label>Galley Parameter Old</label>
    <mobileReady>false</mobileReady>
    <motif>Custom58: Caduceus</motif>
    <page>GalleyReportPage</page>
</CustomTab>
